Multiobjective Analysis Code
…
Code

genotype_env_count <- filtered_data %>%
  group_by(geno) %>%
  summarise(
    n_env   = n_distinct(env),
    n_year  = n_distinct(Year),
    n_local = n_distinct(Local),
    .groups = "drop") %>%
  arrange(desc(n_env))

genotype_env_count

# A tibble: 50 × 4
   geno          n_env n_year n_local
   <chr>         <int>  <int>   <int>
 1 TBIO Aton        41      7       6
 2 TBIO Duque       41      7       6
 3 TBIO Ponteiro    41      7       6
 4 TBIO Toruk       41      7       6
 5 TBIO Trunfo      41      7       6
 6 ORS 1403         38      7       6
 7 ORS MPerola      38      7       6
 8 TBIO Audaz       38      7       6
 9 BRS GAzul        37      7       6
10 CD 1303          35      6       6
# ℹ 40 more rows
…
# lower index_multi = better
multi_tbl

# A tibble: 25 × 11
   genotype  dist_rust dist_mildew dist_tan z_rust z_mildew  z_tan  mean_z  sd_z
   <chr>         <dbl>       <dbl>    <dbl>  <dbl>    <dbl>  <dbl>   <dbl> <dbl>
 1 TBIO Tal…    0.121        1.14    0.0265 -0.430   -0.274 -0.807 -0.503  0.274
 2 ORS Selv…    0.0451       0.108   0.201  -0.715   -1.14   0.300 -0.518  0.739
 3 TBIO Cal…    0.0404       1.68    0.106  -0.733    0.177 -0.300 -0.285  0.455
 4 ORS Feroz    0.0383       1.79    0.114  -0.741    0.268 -0.252 -0.242  0.505
 5 TBIO Tor…    0.152        1.01    0.190  -0.312   -0.384  0.232 -0.155  0.337
 6 TBIO Tit…    0.316        1.13    0.125   0.307   -0.288 -0.178 -0.0532 0.316
 7 Bar 10       0.0888       2.18    0.0339 -0.551    0.594 -0.760 -0.239  0.729
 8 TBIO Mot…    0.0778       2.17    0.0546 -0.592    0.584 -0.628 -0.212  0.690
 9 BRS Sanh…    0.0534       0.108   0.272  -0.684   -1.14   0.754 -0.356  0.988
10 ORS Turbo    0.0851       2.23    0.0292 -0.565    0.631 -0.789 -0.241  0.764
# ℹ 15 more rows
# ℹ 2 more variables: index_multi <dbl>, rank_multi <int>
…
M <- as.matrix(multi_tbl[, c("dist_rust", "dist_mildew", "dist_tan")])

dominated <- sapply(seq_len(nrow(M)), is_dominated, M = M)

multi_tbl <- multi_tbl %>%
  mutate(pareto = !dominated)

multi_tbl %>%
  arrange(index_multi) %>%
  dplyr::select(genotype, dist_rust, dist_mildew, dist_tan, index_multi, rank_multi, pareto)

# A tibble: 25 × 7
   genotype     dist_rust dist_mildew dist_tan index_multi rank_multi pareto
   <chr>            <dbl>       <dbl>    <dbl>       <dbl>      <int> <lgl> 
 1 TBIO Talisma    0.121        1.14    0.0265     -0.366           1 TRUE  
 2 ORS Selvagem    0.0451       0.108   0.201      -0.148           2 TRUE  
 3 TBIO Calibre    0.0404       1.68    0.106      -0.0577          3 TRUE  
 4 ORS Feroz       0.0383       1.79    0.114       0.0107          4 TRUE  
 5 TBIO Toruk      0.152        1.01    0.190       0.0135          5 TRUE  
 6 TBIO Titan      0.316        1.13    0.125       0.105           6 TRUE  
 7 Bar 10          0.0888       2.18    0.0339      0.126           7 TRUE  
 8 TBIO Motriz     0.0778       2.17    0.0546      0.133           8 TRUE  
 9 BRS Sanhaco     0.0534       0.108   0.272       0.138           9 TRUE  
10 ORS Turbo       0.0851       2.23    0.0292      0.141          10 TRUE  
# ℹ 15 more rows
…
