Leaf Rust Analysis Code
…
Code

genotype_env_count <- filtered_data %>%
  group_by(geno) %>%
  summarise(
    n_env   = n_distinct(env),
    n_year  = n_distinct(Year),
    n_local = n_distinct(Local),
    .groups = "drop") %>%
  arrange(desc(n_env))

genotype_env_count

# A tibble: 50 × 4
   geno          n_env n_year n_local
   <chr>         <int>  <int>   <int>
 1 TBIO Aton        41      7       6
 2 TBIO Duque       41      7       6
 3 TBIO Ponteiro    41      7       6
 4 TBIO Toruk       41      7       6
 5 TBIO Trunfo      41      7       6
 6 ORS 1403         38      7       6
 7 ORS MPerola      38      7       6
 8 TBIO Audaz       38      7       6
 9 BRS GAzul        37      7       6
10 CD 1303          35      6       6
# ℹ 40 more rows
…
class_final_df

# A tibble: 25 × 5
   group_num mean_group sev_class geno         response_pct
       <dbl>      <dbl> <chr>     <chr>               <dbl>
 1         1       2.42 R         ORS Selvagem        0.736
 2         1       2.42 R         BRS TR133           0.954
 3         1       2.42 R         BRS TR733           1.49 
 4         1       2.42 R         ORS Feroz           2.07 
 5         1       2.42 R         BRS GAzul           2.73 
 6         1       2.42 R         TBIO Calibre        3.07 
 7         1       2.42 R         BRS Sanhaco         3.22 
 8         1       2.42 R         ORS Turbo           3.51 
 9         1       2.42 R         ORS MPerola         3.99 
10         2       7.31 MR        TBIO Motriz         5.02 
# ℹ 15 more rows
…
n_distinct(m1$data$env)

[1] 36

Code

env_por_geno <- m1$data %>%
  group_by(geno) %>%
  summarise(n_env = n_distinct(env)) %>%
  arrange(n_env)

env_por_geno

# A tibble: 25 × 2
   geno         n_env
   <fct>        <int>
 1 Bar 10           5
 2 TBIO Talisma     7
 3 TBIO Titan      10
 4 ORS Turbo       11
 5 BRS TR133       13
 6 BRS TR733       13
 7 ORS Selvagem    13
 8 ORS Soberano    13
 9 TBIO Motriz     15
10 TBIO Capaz      16
# ℹ 15 more rows
…
Code

m1$clusters

# A tibble: 25 × 4
   geno         cluster_raw cluster  mean_mu
   <chr>              <int>   <int>    <dbl>
 1 Bar 10                 1       2 0.00556 
 2 BRS GAzul              2       1 0.00295 
 3 BRS Sanhaco            2       1 0.00587 
 4 BRS TR133              2       1 0.00170 
 5 BRS TR733              2       1 0.00221 
 6 ORS 1403               3       3 0.0343  
 7 ORS Feroz              2       1 0.000593
 8 ORS MPerola            2       1 0.00353 
 9 ORS Selvagem           2       1 0.000155
10 ORS Senna              1       2 0.00675 
# ℹ 15 more rows
…
