Tan Spot Analysis Code
…
Code

genotype_env_count <- filtered_data %>%
  group_by(geno) %>%
  summarise(
    n_env   = n_distinct(env),
    n_year  = n_distinct(Year),
    n_local = n_distinct(Local),
    .groups = "drop") %>%
  arrange(desc(n_env))

genotype_env_count

# A tibble: 50 × 4
   geno          n_env n_year n_local
   <chr>         <int>  <int>   <int>
 1 TBIO Aton        41      7       6
 2 TBIO Duque       41      7       6
 3 TBIO Ponteiro    41      7       6
 4 TBIO Toruk       41      7       6
 5 TBIO Trunfo      41      7       6
 6 ORS 1403         38      7       6
 7 ORS MPerola      38      7       6
 8 TBIO Audaz       38      7       6
 9 BRS GAzul        37      7       6
10 CD 1303          35      6       6
# ℹ 40 more rows
…
class_final_df

# A tibble: 25 × 5
   group_num mean_group sev_class geno          response_pct
       <dbl>      <dbl> <chr>     <chr>                <dbl>
 1         1       6.44 MR        TBIO Capaz            4.09
 2         1       6.44 MR        TBIO Sossego          4.82
 3         1       6.44 MR        TBIO Motriz           4.98
 4         1       6.44 MR        TBIO Audaz            5.03
 5         1       6.44 MR        ORS 1403              5.38
 6         1       6.44 MR        TBIO Talisma          5.39
 7         1       6.44 MR        TBIO Blanc            5.47
 8         1       6.44 MR        ORS MPerola           5.72
 9         1       6.44 MR        TBIO Duque            6.05
10         1       6.44 MR        TBIO Ponteiro         6.47
# ℹ 15 more rows
…
Code

aacpd_dat %>% count(time_min, time_max)

# A tibble: 118 × 3
   time_min time_max     n
      <dbl>    <dbl> <int>
 1       21       75     3
 2       21       77     3
 3       21       80     4
 4       21       83     6
 5       21       85     4
 6       21       87     8
 7       22       80     1
 8       22       85     1
 9       22       87     5
10       22       90    16
# ℹ 108 more rows
…
library(viridis)
env_por_geno <- m1$data %>%
  group_by(geno) %>%
  summarise(n_env = n_distinct(env)) %>%
  arrange(n_env)

env_por_geno

# A tibble: 25 × 2
   geno         n_env
   <fct>        <int>
 1 TBIO Titan      11
 2 TBIO Talisma    12
 3 Bar 10          13
 4 BRS TR133       13
 5 BRS TR733       14
 6 ORS Selvagem    15
 7 ORS Turbo       15
 8 ORS Soberano    19
 9 TBIO Capaz      19
10 TBIO Motriz     19
# ℹ 15 more rows
…
  geno_feat <- curve_features(m1$pred, threshold = 0.05)

  geno_feat <- geno_feat %>%
    left_join(
      comp_tbl %>%
        dplyr::select(geno, cluster, functional_cl, aacpd_cl, severity_cl),
      by = "geno"
    )
  
  geno_feat

# A tibble: 25 × 8
   geno            t5    vmax t_vmax cluster functional_cl aacpd_cl severity_cl
   <chr>        <dbl>   <dbl>  <dbl> <fct>   <ord>         <ord>    <ord>      
 1 BRS GAzul     71.6 0.00816   89.5 3       HS            MS       MS         
 2 BRS Sanhaco   72.6 0.00741   89.5 3       HS            MS       MS         
 3 BRS TR133     69.6 0.00784   74.6 3       HS            MS       MS         
 4 BRS TR733     69.6 0.00683   74.1 3       HS            HS       MS         
 5 Bar 10        88.5 0.00225   74.1 1       MR            MR       MR         
 6 ORS 1403      81.1 0.00288   74.1 1       MR            MR       MR         
 7 ORS Feroz     75.1 0.00369   73.6 2       MS            MR       MR         
 8 ORS MPerola   82.1 0.00277   74.1 1       MR            MR       MR         
 9 ORS Selvagem  72.6 0.00492   74.1 2       MS            MS       MS         
10 ORS Senna     68.2 0.0109    89.5 3       HS            HS       HS         
# ℹ 15 more rows
…
  final_by_geno <- final_by_env %>%
    group_by(geno) %>%
    summarise(
      final_sev_max_mean = mean(final_sev_max, na.rm = TRUE),
      n_env = n(),
      .groups = "drop")
  
  feat2 <- geno_feat %>%
    left_join(final_by_geno, by = "geno")
  
  feat2

# A tibble: 25 × 10
   geno            t5    vmax t_vmax cluster functional_cl aacpd_cl severity_cl
   <chr>        <dbl>   <dbl>  <dbl> <fct>   <ord>         <ord>    <ord>      
 1 BRS GAzul     71.6 0.00816   89.5 3       HS            MS       MS         
 2 BRS Sanhaco   72.6 0.00741   89.5 3       HS            MS       MS         
 3 BRS TR133     69.6 0.00784   74.6 3       HS            MS       MS         
 4 BRS TR733     69.6 0.00683   74.1 3       HS            HS       MS         
 5 Bar 10        88.5 0.00225   74.1 1       MR            MR       MR         
 6 ORS 1403      81.1 0.00288   74.1 1       MR            MR       MR         
 7 ORS Feroz     75.1 0.00369   73.6 2       MS            MR       MR         
 8 ORS MPerola   82.1 0.00277   74.1 1       MR            MR       MR         
 9 ORS Selvagem  72.6 0.00492   74.1 2       MS            MS       MS         
10 ORS Senna     68.2 0.0109    89.5 3       HS            HS       HS         
# ℹ 15 more rows
# ℹ 2 more variables: final_sev_max_mean <dbl>, n_env <int>
…
