pm_code_mcdc
…
dat_all %>%
  group_by(geno) %>%
  summarise(
    n_years = n_distinct(Year),
    anos = paste(sort(unique(Year)), collapse = ", "))

# A tibble: 192 × 3
   geno         n_years anos      
   <chr>          <int> <chr>     
 1 Anak (BY 10)       1 2019      
 2 Asax               1 2021      
 3 BIO 151482         1 2020      
 4 BIO 153255         2 2020, 2021
 5 BIO 153256         1 2021      
 6 BIO 153257         1 2021      
 7 BIO 153258         1 2021      
 8 BIO 153259         1 2021      
 9 BIO 153260         1 2021      
10 BIO 153261         1 2021      
# ℹ 182 more rows

Code

dat_all %>%
  group_by(Env) %>%
  summarise(n_genotipos = n_distinct(geno), .groups = "drop") %>%
  arrange(Env)

# A tibble: 41 × 2
   Env                   n_genotipos
   <chr>                       <int>
 1 2019_Arapoti                   33
 2 2019_Castro                    33
 3 2019_Itabera_Irrigado          33
 4 2019_Itabera_Sequeiro          33
 5 2019_Ponta_Grossa              33
 6 2019_Tibagi                    33
 7 2020_Arapoti                   44
 8 2020_Castro                    45
 9 2020_Itabera_Irrigado          44
10 2020_Itabera_Sequeiro          44
# ℹ 31 more rows
…
Code

genotype_env_count <- filtered_data %>%
  group_by(geno) %>%
  summarise(
    n_env   = n_distinct(env),
    n_year  = n_distinct(Year),
    n_local = n_distinct(Local),
    .groups = "drop") %>%
  arrange(desc(n_env))

genotype_env_count

# A tibble: 50 × 4
   geno          n_env n_year n_local
   <chr>         <int>  <int>   <int>
 1 TBIO Aton        41      7       6
 2 TBIO Duque       41      7       6
 3 TBIO Ponteiro    41      7       6
 4 TBIO Toruk       41      7       6
 5 TBIO Trunfo      41      7       6
 6 ORS 1403         38      7       6
 7 ORS MPerola      38      7       6
 8 TBIO Audaz       38      7       6
 9 BRS GAzul        37      7       6
10 CD 1303          35      6       6
# ℹ 40 more rows
…
class_final_df

# A tibble: 25 × 5
   group_num mean_group sev_class geno          response_pct
       <dbl>      <dbl> <chr>     <chr>                <dbl>
 1         1       4.11 R         BRS TR133            0.792
 2         1       4.11 R         BRS TR733            1.34 
 3         1       4.11 R         ORS Selvagem         3.14 
 4         1       4.11 R         ORS 1403             3.84 
 5         1       4.11 R         BRS GAzul            3.98 
 6         1       4.11 R         BRS Sanhaco          4.75 
 7         1       4.11 R         ORS Senna            4.85 
 8         1       4.11 R         TBIO Ponteiro        6.40 
 9         1       4.11 R         TBIO Aton            7.85 
10         2      22.4  MR        ORS Feroz           21.9  
# ℹ 15 more rows
…
zadoks_range_geno_env

# A tibble: 753 × 7
   env               geno  n_eval zadoks_start zadoks_end interval zadoks_values
   <fct>             <fct>  <int>        <dbl>      <dbl>    <dbl> <chr>        
 1 2022_Castro       Bar …     10           23         87       64 23, 24, 31, …
 2 2023_Arapoti      Bar …     11           23         87       64 23, 32, 39, …
 3 2023_Castro       Bar …     10           31         85       54 31, 37, 39, …
 4 2023_Itabera_Irr… Bar …     10           23         87       64 23, 32, 39, …
 5 2023_Itabera_Seq… Bar …     10           23         85       62 23, 43, 52, …
 6 2023_Ponta_Grossa Bar …     11           23         85       62 23, 31, 37, …
 7 2023_Tibagi       Bar …     11           23         85       62 23, 31, 32, …
 8 2024_Arapoti      Bar …      7           45         87       42 45, 58, 68, …
 9 2024_Castro       Bar …     13           31         87       56 31, 32, 37, …
10 2024_Itabera_Irr… Bar …      9           43         90       47 43, 47, 54, …
# ℹ 743 more rows
…
Code

aacpd_dat %>% count(time_min, time_max)

# A tibble: 110 × 3
   time_min time_max     n
      <dbl>    <dbl> <int>
 1       20       90     2
 2       21       77     4
 3       21       83     2
 4       21       85    11
 5       21       87     5
 6       22       83     2
 7       22       85     7
 8       22       87    11
 9       22       90    15
10       23       77     1
# ℹ 100 more rows
…
Code

m1$data

# A tibble: 7,545 × 29
      ID ID_Genotipo_Ano Cultura  Year Codigo_Experimento Local   Env     Sowing
   <dbl>           <dbl> <chr>   <dbl> <chr>              <chr>   <chr>   <chr> 
 1   243              21 Trigo    2019 FT19PR_TR40        Arapoti 2019_A… 5/25/…
 2   244              21 Trigo    2019 FT19PR_TR40        Arapoti 2019_A… 5/25/…
 3   245              21 Trigo    2019 FT19PR_TR40        Arapoti 2019_A… 5/25/…
 4   246              21 Trigo    2019 FT19PR_TR40        Arapoti 2019_A… 5/25/…
 5   247              21 Trigo    2019 FT19PR_TR40        Arapoti 2019_A… 5/25/…
 6   248              21 Trigo    2019 FT19PR_TR40        Arapoti 2019_A… 5/25/…
 7   249              21 Trigo    2019 FT19PR_TR40        Arapoti 2019_A… 5/25/…
 8   250              21 Trigo    2019 FT19PR_TR40        Arapoti 2019_A… 5/25/…
 9   251              21 Trigo    2019 FT19PR_TR40        Arapoti 2019_A… 5/25/…
10   252              21 Trigo    2019 FT19PR_TR40        Arapoti 2019_A… 5/25/…
# ℹ 7,535 more rows
# ℹ 21 more variables: Emer <chr>, Data_Avalicao <chr>, DAE <dbl>,
#   parcela <dbl>, Zadoks <dbl>, Genotype <chr>, powdery_mildew <dbl>,
#   rust <dbl>, Tan_spot <dbl>, geno <fct>, env <fct>, time <dbl>,
#   tan_spot <dbl>, aacpd_cl <ord>, severity_cl <ord>, y <dbl>, curve_id <fct>,
#   y_orig <dbl>, .y_raw <dbl>, .y <dbl>, .unit <fct>
…
R-sq.(adj) =  0.813   Deviance explained = 80.8%
fREML = 815.11  Scale est. = 0.078852  n = 7545

Code

env_por_geno <- m1$data %>%
  group_by(geno) %>%
  summarise(n_env = n_distinct(env)) %>%
  arrange(n_env)

env_por_geno

# A tibble: 25 × 2
   geno         n_env
   <fct>        <int>
 1 TBIO Talisma    15
 2 TBIO Titan      15
 3 BRS TR133       17
 4 ORS Selvagem    17
 5 ORS Turbo       17
 6 Bar 10          18
 7 BRS TR733       18
 8 ORS Soberano    24
 9 TBIO Capaz      24
10 TBIO Motriz     24
# ℹ 15 more rows

Code

library(writexl)

#write_xlsx(env_por_geno, "pm_env.xlsx")

dat_ready |> filter(Genotype == "BRS Sanhaco")

# A tibble: 310 × 26
      ID ID_Genotipo_Ano Cultura  Year Codigo_Experimento Local   Env     Sowing
   <dbl>           <dbl> <chr>   <dbl> <chr>              <chr>   <chr>   <chr> 
 1   171              15 Trigo    2019 FT19PR_TR40        Arapoti 2019_A… 5/25/…
 2   172              15 Trigo    2019 FT19PR_TR40        Arapoti 2019_A… 5/25/…
 3   173              15 Trigo    2019 FT19PR_TR40        Arapoti 2019_A… 5/25/…
 4   174              15 Trigo    2019 FT19PR_TR40        Arapoti 2019_A… 5/25/…
 5   175              15 Trigo    2019 FT19PR_TR40        Arapoti 2019_A… 5/25/…
 6   176              15 Trigo    2019 FT19PR_TR40        Arapoti 2019_A… 5/25/…
 7   177              15 Trigo    2019 FT19PR_TR40        Arapoti 2019_A… 5/25/…
 8   178              15 Trigo    2019 FT19PR_TR40        Arapoti 2019_A… 5/25/…
 9   179              15 Trigo    2019 FT19PR_TR40        Arapoti 2019_A… 5/25/…
10   180              15 Trigo    2019 FT19PR_TR40        Arapoti 2019_A… 5/25/…
# ℹ 300 more rows
# ℹ 18 more variables: Emer <chr>, Data_Avalicao <chr>, DAE <dbl>,
#   parcela <dbl>, Zadoks <dbl>, Genotype <chr>, powdery_mildew <dbl>,
#   rust <dbl>, Tan_spot <dbl>, geno <fct>, env <fct>, time <dbl>,
#   tan_spot <dbl>, aacpd_cl <ord>, severity_cl <ord>, y <dbl>, curve_id <fct>,
#   y_orig <dbl>
…
Code

m1$clusters

# A tibble: 25 × 4
   geno         cluster_raw cluster mean_mu
   <chr>              <int>   <int>   <dbl>
 1 Bar 10                 1       3 0.219  
 2 BRS GAzul              2       1 0.0137 
 3 BRS Sanhaco            2       1 0.0137 
 4 BRS TR133              2       1 0.00200
 5 BRS TR733              2       1 0.00254
 6 ORS 1403               2       1 0.0159 
 7 ORS Feroz              1       3 0.195  
 8 ORS MPerola            3       4 0.381  
 9 ORS Selvagem           2       1 0.0181 
10 ORS Senna              2       1 0.0175 
# ℹ 15 more rows
…
  geno_feat <- curve_features(m1$pred, threshold = 0.05)

  geno_feat <- geno_feat %>%
    left_join(
      comp_tbl %>%
        dplyr::select(geno, cluster, functional_cl, aacpd_cl, severity_cl),
      by = "geno"
    )
  
  geno_feat

# A tibble: 25 × 8
   geno            t5     vmax t_vmax cluster functional_cl aacpd_cl severity_cl
   <chr>        <dbl>    <dbl>  <dbl> <fct>   <ord>         <ord>    <ord>      
 1 BRS GAzul     NA   0.000688   46.7 1       R             MS       R          
 2 BRS Sanhaco   NA   0.000810   47.2 1       R             MS       R          
 3 BRS TR133     NA   0.000150   89.5 1       R             MS       R          
 4 BRS TR733     NA   0.000149   50.2 1       R             MS       R          
 5 Bar 10        39.1 0.0125     89.5 3       MS            MR       MS         
 6 ORS 1403      NA   0.000805   89.5 1       R             MR       R          
 7 ORS Feroz     36.1 0.0107     49.2 3       MS            MR       MR         
 8 ORS MPerola   27.6 0.0209     46.2 4       HS            MR       HS         
 9 ORS Selvagem  NA   0.00129    89.5 1       R             MS       R          
10 ORS Senna     NA   0.00125    89.5 1       R             HS       R          
# ℹ 15 more rows
…
  final_by_geno <- final_by_env %>%
    group_by(geno) %>%
    summarise(
      final_sev_max_mean = mean(final_sev_max, na.rm = TRUE),
      n_env = n(),
      .groups = "drop")
  
  feat2 <- geno_feat %>%
    left_join(final_by_geno, by = "geno")
  
  feat2

# A tibble: 25 × 10
   geno            t5     vmax t_vmax cluster functional_cl aacpd_cl severity_cl
   <chr>        <dbl>    <dbl>  <dbl> <fct>   <ord>         <ord>    <ord>      
 1 BRS GAzul     NA   0.000688   46.7 1       R             MS       R          
 2 BRS Sanhaco   NA   0.000810   47.2 1       R             MS       R          
 3 BRS TR133     NA   0.000150   89.5 1       R             MS       R          
 4 BRS TR733     NA   0.000149   50.2 1       R             MS       R          
 5 Bar 10        39.1 0.0125     89.5 3       MS            MR       MS         
 6 ORS 1403      NA   0.000805   89.5 1       R             MR       R          
 7 ORS Feroz     36.1 0.0107     49.2 3       MS            MR       MR         
 8 ORS MPerola   27.6 0.0209     46.2 4       HS            MR       HS         
 9 ORS Selvagem  NA   0.00129    89.5 1       R             MS       R          
10 ORS Senna     NA   0.00125    89.5 1       R             HS       R          
# ℹ 15 more rows
# ℹ 2 more variables: final_sev_max_mean <dbl>, n_env <int>
…
